{
  "id": "WizzitMobileBankingRegistration",
  "menu": {
    "start": {
      "module": {
        "name": "VerifyAgentModule",
        "response": [
          {
            "responseCode": "VUM-00",
            "nextPositionID": "pinPrompt"
          },
          {
            "responseCode": "VUM-01",
            "nextPositionID": "signUpFailed"
          },
          {
            "responseCode": "VUM-02",
            "nextPositionID": "agentsOnly"
          },
          {
            "responseCode": "VUM-03",
            "nextPositionID": "accountDisabled"
          }
        ]
      },
      "continueSession": true,
      "allowShortCut": false
    },
    "pinPrompt": {
      "text": {
        "multiLanguage": "Welcome to WIZZIT USSD Banking sign ups. Enter your WIZZIT USSD Banking PIN:"
      },
      "module": {
        "name": "AuthenticateUserModule",
        "response": [
          {
            "responseCode": "AUM-00",
            "nextPositionID": "tracerNumberPrompt"
          },
          {
            "responseCode": "AUM-01",
            "nextPositionID": "signUpFailed"
          },
          {
            "responseCode": "AUM-02",
            "nextPositionID": "incorrectPassword"
          }
        ]
      },
      "continueSession": true,
      "allowShortCut": false
    },
    "agentsOnly": {
      "text": {
        "multiLanguage": "You do not have a registered WizzKid account. Contact the call centre on 0861949948 for information. Session terminated."
      },
      "continueSession": false,
      "allowShortCut": false
    },
    "accountDisabled": {
      "text": {
        "multiLanguage": "Your WizzKid account has been disabled. Contact the call centre on 0861949948 for information. Session terminated."
      },
      "continueSession": false,
      "allowShortCut": false
    },
    "incorrectPassword": {
      "text": {
        "multiLanguage": "Password entered is incorrect. Session terminated."
      },
      "continueSession": false,
      "allowShortCut": false
    },
    "tracerNumberPrompt": {
      "text": {
        "multiLanguage": "Enter the 9 digit tracer number e.g. 101234567:"
      },
      "continueSession": true,
      "allowShortCut": false,
      "saveValue": "tracerNumber",
      "regex": "[1]{1}[0-9]{8}",
      "module": {
        "name": "VerifyTracerNumberModule",
        "response": [
          {
            "responseCode": "VTNM-00",
            "nextPositionID": "customerMsisdnPrompt"
          },
          {
            "responseCode": "VTNM-01",
            "nextPositionID": "tracerNumberIssued"
          },
          {
            "responseCode": "VTNM-02",
            "nextPositionID": "tracerNumberNonExistent"
          },
          {
            "responseCode": "VTNM-03",
            "nextPositionID": "signUpFailed"
          },
          {
            "responseCode": "VTNM-04",
            "nextPositionID": "tracerNumberInvalid"
          }
        ]
      }
    },
    "tracerNumberInvalid": {
      "text": {
        "multiLanguage": "The tracer number entered is invalid. Try again:"
      },
      "continueSession": true,
      "allowShortCut": false,
      "saveValue": "tracerNumber",
      "regex": "[1]{1}[0-9]{8}",
      "module": {
        "name": "VerifyTracerNumberModule",
        "response": [
          {
            "responseCode": "VTNM-00",
            "nextPositionID": "customerMsisdnPrompt"
          },
          {
            "responseCode": "VTNM-01",
            "nextPositionID": "tracerNumberIssued"
          },
          {
            "responseCode": "VTNM-02",
            "nextPositionID": "tracerNumberNonExistent"
          },
          {
            "responseCode": "VTNM-03",
            "nextPositionID": "signUpFailed"
          },
          {
            "responseCode": "VTNM-04",
            "nextPositionID": "tracerNumberInvalid"
          }
        ]
      }
    },
    "tracerNumberIssued": {
      "text": {
        "multiLanguage": "The pack for the entered tracer number has already been issued. Try again:"
      },
      "continueSession": true,
      "allowShortCut": false,
      "saveValue": "tracerNumber",
      "regex": "[1]{1}[0-9]{8}",
      "module": {
        "name": "VerifyTracerNumberModule",
        "response": [
          {
            "responseCode": "VTNM-00",
            "nextPositionID": "customerMsisdnPrompt"
          },
          {
            "responseCode": "VTNM-01",
            "nextPositionID": "tracerNumberIssued"
          },
          {
            "responseCode": "VTNM-02",
            "nextPositionID": "tracerNumberNonExistent"
          },
          {
            "responseCode": "VTNM-03",
            "nextPositionID": "signUpFailed"
          },
          {
            "responseCode": "VTNM-04",
            "nextPositionID": "tracerNumberInvalid"
          }
        ]
      }
    },
    "tracerNumberNonExistent": {
      "text": {
        "multiLanguage": "The tracer number entered does not exist. Try again:"
      },
      "continueSession": true,
      "allowShortCut": false,
      "saveValue": "tracerNumber",
      "regex": "[1]{1}[0-9]{8}",
      "module": {
        "name": "VerifyTracerNumberModule",
        "response": [
          {
            "responseCode": "VTNM-00",
            "nextPositionID": "customerMsisdnPrompt"
          },
          {
            "responseCode": "VTNM-01",
            "nextPositionID": "tracerNumberIssued"
          },
          {
            "responseCode": "VTNM-02",
            "nextPositionID": "tracerNumberNonExistent"
          },
          {
            "responseCode": "VTNM-03",
            "nextPositionID": "signUpFailed"
          },
          {
            "responseCode": "VTNM-04",
            "nextPositionID": "tracerNumberInvalid"
          }
        ]
      }
    },
    "customerMsisdnPrompt": {
      "text": {
        "multiLanguage": "Enter the customer's 10 digit cell phone number e.g. 0731234567:"
      },
      "continueSession": true,
      "allowShortCut": false,
      "saveValue": "customerMsisdn",
      "regex": "[0]{1}[0-9]{9}",
      "module": {
        "name": "VerifyCustomerMsisdnModule",
        "response": [
          {
            "responseCode": "VCMM-00",
            "nextPositionID": "idNumberPrompt"
          },
          {
            "responseCode": "VCMM-01",
            "nextPositionID": "invalidCustomerMsisdn"
          },
          {
            "responseCode": "VCMM-02",
            "nextPositionID": "duplicateCustomerMsisdn"
          },
          {
            "responseCode": "VCMM-03",
            "nextPositionID": "signUpFailed"
          }
        ]
      }
    },
    "invalidCustomerMsisdn": {
      "text": {
        "multiLanguage": "Customer cellphone number entered is invalid. Try again:"
      },
      "continueSession": true,
      "allowShortCut": false,
      "saveValue": "customerMsisdn",
      "regex": "[0]{1}[0-9]{9}",
      "module": {
        "name": "VerifyCustomerMsisdnModule",
        "response": [
          {
            "responseCode": "VCMM-00",
            "nextPositionID": "idNumberPrompt"
          },
          {
            "responseCode": "VCMM-01",
            "nextPositionID": "invalidCustomerMsisdn"
          },
          {
            "responseCode": "VCMM-02",
            "nextPositionID": "duplicateCustomerMsisdn"
          },
          {
            "responseCode": "VCMM-03",
            "nextPositionID": "signUpFailed"
          }
        ]
      }
    },
    "duplicateCustomerMsisdn": {
      "text": {
        "multiLanguage": "Customer cellphone number entered is registered to another WIZZIT customer. Try again:"
      },
      "continueSession": true,
      "allowShortCut": false,
      "saveValue": "customerMsisdn",
      "regex": "[0]{1}[0-9]{9}",
      "module": {
        "name": "VerifyCustomerMsisdnModule",
        "response": [
          {
            "responseCode": "VCMM-00",
            "nextPositionID": "idNumberPrompt"
          },
          {
            "responseCode": "VCMM-01",
            "nextPositionID": "invalidCustomerMsisdn"
          },
          {
            "responseCode": "VCMM-02",
            "nextPositionID": "duplicateCustomerMsisdn"
          },
          {
            "responseCode": "VCMM-03",
            "nextPositionID": "signUpFailed"
          }
        ]
      }
    },
    "idNumberPrompt": {
      "text": {
        "multiLanguage": "Enter the customer's 13 digit South African ID number e.g. 730302744579:"
      },
      "continueSession": true,
      "allowShortCut": false,
      "saveKey": "customerID",
      "regex": "[0-9]{13}",
      "module": {
        "name": "VerifyCustomerIDModule",
        "response": [
          {
            "responseCode": "VCIM-00",
            "nextPositionID": "confirmCustomerParticulars"
          },
          {
            "responseCode": "VCIM-01",
            "nextPositionID": "foreignerNamePrompt"
          },
          {
            "responseCode": "VCIM-02",
            "nextPositionID": "aliasNotAllowed"
          },
          {
            "responseCode": "VCIM-03",
            "nextPositionID": "customerIDAlreadyRegistered"
          },
          {
            "responseCode": "VCIM-04",
            "nextPositionID": "invalidCustomerID"
          },
          {
            "responseCode": "VCIM-05",
            "nextPositionID": "noRecordMessage"
          },
          {
            "responseCode": "VCIM-06",
            "nextPositionID": "multipleRecordMessage"
          },
          {
            "responseCode": "VCIM-07",
            "nextPositionID": "recordErrorMessage"
          },
          {
            "responseCode": "VCIM-08",
            "nextPositionID": "idHolderDeceasedMessage"
          },
          {
            "responseCode": "VCIM-09",
            "nextPositionID": "idHolderMinorMessage"
          },
          {
            "responseCode": "VCIM-10",
            "nextPositionID": "signUpFailed"
          }
        ]
      }
    },
    "aliasNotAllowed": {
      "text": {
        "multiLanguage": "Alias currently not allowed. Session terminated."
      },
      "continueSession": false,
      "allowShortCut": false
    },
    "foreignerNamePrompt": {
      "text": {
        "multiLanguage": "Enter foreigner name:"
      },
      "continueSession": true,
      "allowShortCut": false,
      "saveKey": "name",
      "regex": "[a-zA-Z]",
      "module": {
        "name": "VerifyInputModule",
        "response": [
          {
            "responseCode": "VIM-00",
            "nextPositionID": "foreignerSurnamePrompt"
          },
          {
            "responseCode": "VIM-01",
            "nextPositionID": "invalidForeignerNamePrompt"
          }
        ]
      }
    },
    "invalidForeignerNamePrompt": {
      "text": {
        "multiLanguage": "Foreigner name entered is invalid. Try again:"
      },
      "continueSession": true,
      "allowShortCut": false,
      "saveKey": "name",
      "regex": "[a-zA-Z]",
      "module": {
        "name": "VerifyInputModule",
        "response": [
          {
            "responseCode": "VIM-00",
            "nextPositionID": "foreignerSurnamePrompt"
          },
          {
            "responseCode": "VIM-01",
            "nextPositionID": "invalidForeignerNamePrompt"
          }
        ]
      }
    },
    "foreignerSurnamePrompt": {
      "text": {
        "multiLanguage": "Enter foreigner surname:"
      },
      "continueSession": true,
      "allowShortCut": false,
      "saveKey": "surname",
      "regex": "[a-zA-Z]",
      "module": {
        "name": "VerifyInputModule",
        "response": [
          {
            "responseCode": "VIM-00",
            "nextPositionID": "foreignerPassportPrompt"
          },
          {
            "responseCode": "VIM-01",
            "nextPositionID": "invalidForeignerSurnamePrompt"
          }
        ]
      }
    },
    "invalidForeignerSurnamePrompt": {
      "text": {
        "multiLanguage": "The foreigner surname entered is invalid. Try again:"
      },
      "continueSession": true,
      "allowShortCut": false,
      "saveKey": "surname",
      "regex": "[a-zA-Z]",
      "module": {
        "name": "VerifyInputModule",
        "response": [
          {
            "responseCode": "VIM-00",
            "nextPositionID": "foreignerNumberPrompt"
          },
          {
            "responseCode": "VIM-01",
            "nextPositionID": "invalidForeignerSurnamePrompt"
          }
        ]
      }
    },
    "foreignerPassportPrompt": {
      "text": {
        "multiLanguage": "Enter the foreigner passport/refugee number:"
      },
      "continueSession": true,
      "allowShortCut": false,
      "saveKey": "customerID",
      "properties": [
        {
          "key": "customerIDType",
          "value": "2"
        }
      ],
      "regex": "[a-zA-Z0-9]",
      "module": {
        "name": "VerifyInputModuleForeigner",
        "response": [
          {
            "responseCode": "VIM-00",
            "nextPositionID": "confirmCustomerParticulars"
          },
          {
            "responseCode": "VIM-01",
            "nextPositionID": "invalidForeignerNumberPrompt"
          }
        ]
      }
    },
    "invalidForeignerNumberPrompt": {
      "text": {
        "multiLanguage": "The foreigner passport/refugee number entered is invalid. Try again:"
      },
      "continueSession": true,
      "allowShortCut": false,
      "saveKey": "customerID",
      "regex": "[a-zA-Z0-9]",
      "module": {
        "name": "VerifyInputModule",
        "response": [
          {
            "responseCode": "VCIM-00",
            "nextPositionID": "confirmCustomerParticulars"
          },
          {
            "responseCode": "VCIM-04",
            "nextPositionID": "invalidForeignerNumberPrompt"
          }
        ]
      }
    },
    "recordErrorMessage": {
      "text": {
        "multiLanguage": "Client ID Number record error. Fax certified copy of: Client's ID with tracer number, cellphone number, and your WizzKid Number to 0866507103"
      },
      "continueSession": false,
      "allowShortCut": false
    },
    "multipleRecordMessage": {
      "text": {
        "multiLanguage": "Client ID Number record error. Fax certified copy of: Client's ID with tracer number, cellphone number, and your WizzKid Number to 0866507103"
      },
      "continueSession": false,
      "allowShortCut": false
    },
    "noRecordMessage": {
      "text": {
        "multiLanguage": "Client ID Number record error. Fax certified copy of: Client's ID with tracer number, cellphone number, and your WizzKid Number to 0866507103"
      },
      "continueSession": false,
      "allowShortCut": false
    },
    "invalidCustomerID": {
      "text": {
        "multiLanguage": "The customer ID entered is invalid. Try again"
      },
      "continueSession": true,
      "allowShortCut": false,
      "saveValue": "customerID",
      "regex": "[0-9]{13}",
      "module": {
        "name": "verifyCustomerIDModule",
        "response": [
          {
            "responseCode": "VCIM-00",
            "nextPositionID": "customerParticularsConfirm"
          },
          {
            "responseCode": "VCIM-01",
            "nextPositionID": "foreignerNamePrompt"
          },
          {
            "responseCode": "VCIM-02",
            "nextPositionID": "aliasNotAllowed"
          },
          {
            "responseCode": "VCIM-03",
            "nextPositionID": "customerIDAlreadyRegistered"
          },
          {
            "responseCode": "VCIM-04",
            "nextPositionID": "invalidCustomerID"
          },
          {
            "responseCode": "VCIM-05",
            "nextPositionID": "noRecordMessage"
          },
          {
            "responseCode": "VCIM-06",
            "nextPositionID": "multipleRecordMessage"
          },
          {
            "responseCode": "VCIM-07",
            "nextPositionID": "recordErrorMessage"
          },
          {
            "responseCode": "VCIM-08",
            "nextPositionID": "idHolderDeceasedMessage"
          },
          {
            "responseCode": "VCIM-09",
            "nextPositionID": "idHolderMinorMessage"
          },
          {
            "responseCode": "VCIM-10",
            "nextPositionID": "signUpFailed"
          }
        ]
      }
    },
    "idHolderDeceased": {
      "text": {
        "multiLanguage": "The holder of @ID is deceased. Try again:"
      },
      "continueSession": true,
      "allowShortCut": false,
      "saveValue": "customerID",
      "regex": "[0-9]{13}",
      "module": {
        "name": "verifyCustomerIDModule",
        "response": [
          {
            "responseCode": "VCIM-00",
            "nextPositionID": "customerParticularsConfirm"
          },
          {
            "responseCode": "VCIM-01",
            "nextPositionID": "foreignerNamePrompt"
          },
          {
            "responseCode": "VCIM-02",
            "nextPositionID": "aliasNotAllowed"
          },
          {
            "responseCode": "VCIM-03",
            "nextPositionID": "customerIDAlreadyRegistered"
          },
          {
            "responseCode": "VCIM-04",
            "nextPositionID": "invalidCustomerID"
          },
          {
            "responseCode": "VCIM-05",
            "nextPositionID": "noRecordMessage"
          },
          {
            "responseCode": "VCIM-06",
            "nextPositionID": "multipleRecordMessage"
          },
          {
            "responseCode": "VCIM-07",
            "nextPositionID": "recordErrorMessage"
          },
          {
            "responseCode": "VCIM-08",
            "nextPositionID": "idHolderDeceasedMessage"
          },
          {
            "responseCode": "VCIM-09",
            "nextPositionID": "idHolderMinorMessage"
          },
          {
            "responseCode": "VCIM-10",
            "nextPositionID": "signUpFailed"
          }
        ]
      }
    },
    "idHolderMinorMessage": {
      "text": {
        "multiLanguage": "The holder of @ ID is a minor. Try again:"
      },
      "continueSession": true,
      "allowShortCut": false,
      "saveValue": "customerID",
      "regex": "[0-9]{13}",
      "module": {
        "name": "verifyCustomerIDModule",
        "response": [
          {
            "responseCode": "VCIM-00",
            "nextPositionID": "customerParticularsConfirm"
          },
          {
            "responseCode": "VCIM-01",
            "nextPositionID": "foreignerNamePrompt"
          },
          {
            "responseCode": "VCIM-02",
            "nextPositionID": "aliasNotAllowed"
          },
          {
            "responseCode": "VCIM-03",
            "nextPositionID": "customerIDAlreadyRegistered"
          },
          {
            "responseCode": "VCIM-04",
            "nextPositionID": "invalidCustomerID"
          },
          {
            "responseCode": "VCIM-05",
            "nextPositionID": "noRecordMessage"
          },
          {
            "responseCode": "VCIM-06",
            "nextPositionID": "multipleRecordMessage"
          },
          {
            "responseCode": "VCIM-07",
            "nextPositionID": "recordErrorMessage"
          },
          {
            "responseCode": "VCIM-08",
            "nextPositionID": "idHolderDeceasedMessage"
          },
          {
            "responseCode": "VCIM-09",
            "nextPositionID": "idHolderMinorMessage"
          },
          {
            "responseCode": "VCIM-10",
            "nextPositionID": "signUpFailed"
          }
        ]
      }
    },
    "confirmCustomerParticulars": {
      "items": [
        {
          "text": {
            "multiLanguage": "Are the following details correct?\n\nTracer: @\nCellphone: @\nName: @\nSurname: @\nID Number: @\n"
          },
          "isEnabled": true
        },
        {
          "option": {
            "text": {
              "multiLanguage": "Yes"
            }
          },
          "isEnabled": true,
          "module": {
            "name": "ProcessSignUpModule",
            "response": [
              {
                "responseCode": "PSUM-00",
                "nextPositionID": "SignUpPending"
              },
              {
                "responseCode": "PSUM-01",
                "nextPositionID": "SignUpFailed"
              },
              {
                "responseCode": "PSUM-03",
                "nextPositionID": "SignUpPending"
              }
            ]
          }
        },
        {
          "option": {
            "text": {
              "multiLanguage": "No"
            }
          },
          "isEnabled": true,
          "nextPositionID": "tracerNumberPrompt"
        }
      ],
      "continueSession": true,
      "allowShortCut": false
    },
    "SignUpPending": {
      "text": {
        "multiLanguage": "The customer sign up is pending. Result SMS's will be sent promptly."
      },
      "continueSession": false,
      "allowShortCut": false
    },
    "SignUpSuccessful": {
      "text": {
        "multiLanguage": "The customer has been successfully signed up. An SMS will be sent to you and the customer."
      },
      "continueSession": false,
      "allowShortCut": false
    },
    "SignUpUnsuccessful": {
      "text": {
        "multiLanguage": "The customer has not been successfully signed up. An SMS will be sent to you."
      },
      "continueSession": false,
      "allowShortCut": false
    },
    "SignUpFailed": {
      "text": {
        "multiLanguage": "An unexpected error has occurred. Failed to complete sign up. Session terminated."
      },
      "continueSession": false,
      "allowShortCut": false
    }
  },
  "sms": {
    "agent": {
      "multiLanguage": "Customer sign-up Results:\n\nStatus: @status\nTracer: @tracer\nID: @ID\nCellphone: @msisdn\nResponse Code: @responseCode"
    },
    "customer": {
      "multiLanguage": "Welcome to WIZZIT! Your account has been successfully activated.Dial *120*949# to complete the sign up. Download Apps from Apple iStore and Google Play stores! Internet Banking: https://iwizz.wizzit.co.za"
    }
  }
}